<?xml version="1.0" encoding="UTF-8"?>
<svg width="16px" height="16px" viewBox="0 0 16 16" version="1.1" xmlns="http://www.w3.org/2000/svg" xmlns:xlink="http://www.w3.org/1999/xlink">
    <title>i-menu</title>
    <g id="i-menu" stroke="none" stroke-width="1" fill="none" fill-rule="evenodd">
        <path d="M16,13 L16,15 L-2.27373675e-13,15 L-2.27373675e-13,13 L16,13 Z M16,7 L16,9 L-2.27373675e-13,9 L-2.27373675e-13,7 L16,7 Z M16,1 L16,3 L-2.27373675e-13,3 L-2.27373675e-13,1 L16,1 Z" id="Icon-color" fill="#000000"></path>
    </g>
</svg>