<?xml version="1.0" encoding="UTF-8"?>
<svg width="24px" height="24px" viewBox="0 0 24 24" version="1.1" xmlns="http://www.w3.org/2000/svg" xmlns:xlink="http://www.w3.org/1999/xlink">
    <title>promotion-1</title>
    <g id="----Clothing" stroke="none" stroke-width="1" fill="none" fill-rule="evenodd">
        <g id="HD-Homepage---Store-template--Copy" transform="translate(-192.000000, -3896.000000)">
            <g id="promotion-1" transform="translate(192.000000, 3896.000000)">
                <g id="Background/Sharp" fill="#FFFFFF" fill-opacity="0">
                    <rect id="Background" x="0" y="0" width="24" height="24"></rect>
                </g>
                <path d="M23.5546786,0.894704276 C22.7134401,-0.209699797 21.0599712,-0.296889592 20.1026998,0.662198155 L14.8522111,4.52761241 L2.43669089,2.289741 L2.32065799,5.25419404 L11.1391583,9.14867155 L4.7863571,16.3854246 L1.97255929,15.339147 L0,16.5307409 L7.45511379,24 L8.67345923,22.0818245 L7.60015491,19.2336245 L14.7941947,12.926896 L18.6812968,21.7911919 L21.669144,21.587749 L19.4355107,9.17773482 L23.2936046,3.97541037 C24.1058349,3.16163895 24.250876,1.82472876 23.5546786,0.894704276 Z" id="Icon" fill-opacity="0.6" fill="#000000"></path>
            </g>
        </g>
    </g>
</svg>